{
	"$id" : "https://gitlab.com/php-extended/php-api-fr-insee-catjur-interface/json-schema.json",
	"$schema" : "https://json-schema.org/draft/2020-12/schema",
	"type" : "null",
	"$defs" : {
		"ApiFrInseeCatjurCategoryLv1" : {
			"type" : "object",
			"description" : "This is the lv1 of the juridic categories.",
			"properties" : {
				"idLv1" : {
					"type" : "integer",
					"description" : "The id of the category."
				},
				"libelle" : {
					"type" : "string",
					"description" : "The label of the category."
				}
			},
			"required" : ["idLv1", "libelle"]
		},
		"ApiFrInseeCatjurCategoryLv2" : {
			"type" : "object",
			"description" : "This is the lv2 of the juridic categories.",
			"properties" : {
				"idLv2" : {
					"type" : "integer",
					"description" : "The id of the category."
				},
				"idLv1" : {
					"type" : "integer",
					"description" : "The id of the related lv1."
				},
				"libelle" : {
					"type" : "string",
					"description" : "The label of the category."
				}
			},
			"required" : ["idLv2", "idLv1", "libelle"]
		},
		"ApiFrInseeCatjurCategoryLv3" : {
			"type" : "object",
			"description" : "This is the lv3 of the juridic categories.",
			"properties" : {
				"idLv3" : {
					"type" : "integer",
					"description" : "The id of the category."
				},
				"idLv2" : {
					"type" : "integer",
					"description" : "The id of the related lv2."
				},
				"createdYear" : {
					"type" : "integer",
					"description" : "The year when this category was created."
				},
				"removedYear" : {
					"type" : "integer",
					"description" : "The year when this category was removed."
				},
				"libelle" : {
					"type" : "string",
					"description" : "The label of the category."
				}
			},
			"required" : ["idLv3", "idLv2", "createdYear", "libelle"]
		}
	}
}